Sección 8 Caso Práctico Modelo QSAR: Regresión Lineal Múltiple | Relación cuantitativa entre estructura y actividad
…
Descriptores moleculares

Generación de descriptores

Para calcular los descriptores electrónicos, los autores emplearon el paquete Gaussian03. Las geometrías de los 36 derivados de tiadiazol se optimizaron mediante el método DFT (Teoría del Funcional de Densidad), una técnica teórica en química computacional utilizada para calcular propiedades electrónicas de las moléculas. Estos cálculos se realizaron utilizando el conjunto funcional B3LYP, que define las interacciones electrónicas en las moléculas, y la base 6-31G (d), un conjunto de funciones de base utilizado para aproximar las funciones de onda electrónica en los cálculos de DFT. Estos cálculos proporcionaron varios descriptores estructurales clave, incluyendo la energía orbital molecular ocupada más alta (HOMO), la energía orbital molecular desocupada más baja (LUMO), el momento dipolar (μ), la brecha de energía (ΔE) y la energía total.

Por otro lado, para calcular una serie de descriptores moleculares adicionales, como el volumen molar MV (cm³), el peso molecular MW (g/mol), la refractividad molar MR (cm³), el parachor Pc (cm³), la densidad D (g/cm³), el índice de refracción n y el coeficiente de partición octanol/agua (logP), se utilizó el programa ChemSketch. Los valores de los 12 descriptores químicos calculados se presentan en la siguiente tabla junto con sus respectivas actividades biológicas calculadas experimentalmente (\(pIC_{50}\)).

# Cargar datos con los valores de los parametros (descriptores)
Valores_Parametros_Tiadiazoles <- read_xlsx("Valores_Parametros_Tiadiazoles.xlsx")

Valores_Parametros_Tiadiazoles

## # A tibble: 36 × 14
##        N pIC50    MW    MR    MV    Pc     n     D       Et Ehomo Elumo DeltaE
##    <dbl> <dbl> <dbl> <dbl> <dbl> <dbl> <dbl> <dbl>    <dbl> <dbl> <dbl>  <dbl>
##  1     1  4.93  385.  97.7  266.  36.6  1.66  1.45  -44405. -6.59 -2.84   3.75
##  2     2  4.97  420. 103.   278.  34.4  1.66  1.51  -56919. -6.7  -2.85   3.85
##  3     3  4.88  420. 103.   278.  34.4  1.66  1.51  -56919. -6.41 -2.92   3.49
##  4     4  4.58  420. 103.   278.  34.4  1.66  1.51  -56920. -6.69 -2.88   3.82
##  5     5  4.72  391.  96.0  255.  42.8  1.68  1.53  -53139. -6.38 -3.08   3.3 
##  6     6  4.92  426. 101.   267   40.1  1.68  1.59  -65654. -6.7  -2.88   3.82
##  7     7  4.88  470. 104.   271.  46.0  1.69  1.73 -123150. -6.65 -2.87   3.78
##  8     8  4.60  401. 104.   272.  36.7  1.69  1.47  -53199. -6.37 -2.48   3.89
##  9     9  4.46  436. 109.   284.  34.5  1.69  1.53  -65714. -6.69 -2.93   3.76
## 10    10  4.22  436. 109.   284.  34.5  1.69  1.53  -65714. -6.7  -2.96   3.74
## # ℹ 26 more rows
## # ℹ 2 more variables: mu <dbl>, logP <dbl>
…
## # A tibble: 2 × 6
##   .metric .estimator  mean     n std_err .config             
##   <chr>   <chr>      <dbl> <int>   <dbl> <chr>               
## 1 rmse    standard   0.402    10  0.0532 Preprocessor1_Model1
## 2 rsq     standard   0.699    10  0.0956 Preprocessor1_Model1

En este caso, las estimaciones de desempeño son mas realistas que las estimaciones de resustitución.

Para obtener las predicciones del conjunto de evaluación:

#Modelo regresion lineal
assess_res_lm <- collect_predictions(lm_res)
assess_res_lm

## # A tibble: 30 × 5
##    id     .pred  .row pIC50 .config             
##    <chr>  <dbl> <int> <dbl> <chr>               
##  1 Fold01  4.26     1  4.02 Preprocessor1_Model1
##  2 Fold01  4.00    11  3.22 Preprocessor1_Model1
##  3 Fold01  4.29    20  4.48 Preprocessor1_Model1
##  4 Fold02  4.83     5  4.22 Preprocessor1_Model1
##  5 Fold02  4.82     8  4.62 Preprocessor1_Model1
##  6 Fold02  4.28    30  4.96 Preprocessor1_Model1
##  7 Fold03  4.12     9  4.72 Preprocessor1_Model1
##  8 Fold03  4.88    17  4.60 Preprocessor1_Model1
##  9 Fold03  4.72    29  4.62 Preprocessor1_Model1
## 10 Fold04  4.54    18  4.88 Preprocessor1_Model1
## # ℹ 20 more rows

#Modelo bosque aleatorio
assess_res_rf <- collect_predictions(rf_res)
assess_res_rf

## # A tibble: 30 × 5
##    id     .pred  .row pIC50 .config             
##    <chr>  <dbl> <int> <dbl> <chr>               
##  1 Fold01  4.42     1  4.02 Preprocessor1_Model1
##  2 Fold01  4.27    11  3.22 Preprocessor1_Model1
##  3 Fold01  4.72    20  4.48 Preprocessor1_Model1
##  4 Fold02  4.52     5  4.22 Preprocessor1_Model1
##  5 Fold02  4.51     8  4.62 Preprocessor1_Model1
##  6 Fold02  4.45    30  4.96 Preprocessor1_Model1
##  7 Fold03  4.18     9  4.72 Preprocessor1_Model1
##  8 Fold03  4.64    17  4.60 Preprocessor1_Model1
##  9 Fold03  4.46    29  4.62 Preprocessor1_Model1
## 10 Fold04  4.60    18  4.88 Preprocessor1_Model1
## # ℹ 20 more rows
…
# Resumir métricas de Evaluación del Modelo 
collect_metrics(tune_res) %>%
  filter(.metric == 'rmse') %>% 
  select(penalty, rmse = mean) # Esta parte resume las métricas de evaluación del modelo y selecciona el valor de penalización óptimo basado en el error cuadrático medio (rmse) más bajo.

## # A tibble: 100 × 2
##         penalty  rmse
##           <dbl> <dbl>
##  1 0.00000001   0.429
##  2 0.0000000145 0.429
##  3 0.0000000210 0.429
##  4 0.0000000305 0.429
##  5 0.0000000443 0.429
##  6 0.0000000643 0.429
##  7 0.0000000933 0.429
##  8 0.000000135  0.429
##  9 0.000000196  0.429
## 10 0.000000285  0.429
## # ℹ 90 more rows
…
collect_metrics(lm_res_N)

## # A tibble: 2 × 6
##   .metric .estimator  mean     n std_err .config             
##   <chr>   <chr>      <dbl> <int>   <dbl> <chr>               
## 1 rmse    standard   0.411    10  0.0487 Preprocessor1_Model1
## 2 rsq     standard   0.722    10  0.111  Preprocessor1_Model1

#Modelo regresion lineal
assess_res_lm_N <- collect_predictions(lm_res_N)
assess_res_lm_N

## # A tibble: 30 × 5
##    id     .pred  .row pIC50 .config             
##    <chr>  <dbl> <int> <dbl> <chr>               
##  1 Fold01  4.65    12  4.1  Preprocessor1_Model1
##  2 Fold01  4.43    23  4.58 Preprocessor1_Model1
##  3 Fold01  4.27    24  4.93 Preprocessor1_Model1
##  4 Fold02  4.19     1  4.02 Preprocessor1_Model1
##  5 Fold02  4.70    14  4.59 Preprocessor1_Model1
##  6 Fold02  4.83    15  4.46 Preprocessor1_Model1
##  7 Fold03  4.76     8  4.62 Preprocessor1_Model1
##  8 Fold03  4.83    13  4.48 Preprocessor1_Model1
##  9 Fold03  4.22    20  4.48 Preprocessor1_Model1
## 10 Fold04  4.85     6  4.37 Preprocessor1_Model1
## # ℹ 20 more rows
…
